labs_bk/lab_02/sv/verdiLog/sim.log
Command: /home/ICer/Documents/basic_uvm/labs/lab_02/sv/simv +UVM_TESTNAME=my_test +UVM_VERDI_TRACE=UVM_AWARE+RAL+HIER+COMPWAVE +UVM_TR_RECORD -sml=verdi +fsdb+gate=off -ucli2Proc -ucli -l /home/ICer/Documents/basic_uvm/labs/lab_02/sv/verdiLog/sim.log
Chronologic VCS simulator copyright 1991-2018
Contains Synopsys proprietary information.
Compiler version O-2018.09-1_Full64; Runtime version O-2018.09-1_Full64;  Jun 21 00:08 2024
<slp!&*()_+>
----------------------------------------------------------------
<slb!&*()_+>---<sls!&*()_+>loc: -1<sls!&*()_+>src: /home/synopsys/vcs-mx/O-2018.09-1/etc/uvm/base/uvm_root.svh<sls!&*()_+>line: 317<sls!&*()_+>time: 0 ns<sls!&*()_+>length: 0<sls!&*()_+>...<sls!&*()_+><sle!&*()_+>
<slp!&*()_+>
UVM-1.1d.Synopsys
<slb!&*()_+>---<sls!&*()_+>loc: -1<sls!&*()_+>src: /home/synopsys/vcs-mx/O-2018.09-1/etc/uvm/base/uvm_root.svh<sls!&*()_+>line: 317<sls!&*()_+>time: 0 ns<sls!&*()_+>length: 0<sls!&*()_+>...<sls!&*()_+><sle!&*()_+>
<slp!&*()_+>
(C) 2007-2013 Mentor Graphics Corporation
<slb!&*()_+>---<sls!&*()_+>loc: -1<sls!&*()_+>src: /home/synopsys/vcs-mx/O-2018.09-1/etc/uvm/base/uvm_root.svh<sls!&*()_+>line: 317<sls!&*()_+>time: 0 ns<sls!&*()_+>length: 0<sls!&*()_+>...<sls!&*()_+><sle!&*()_+>
<slp!&*()_+>
(C) 2007-2013 Cadence Design Systems, Inc.
<slb!&*()_+>---<sls!&*()_+>loc: -1<sls!&*()_+>src: /home/synopsys/vcs-mx/O-2018.09-1/etc/uvm/base/uvm_root.svh<sls!&*()_+>line: 317<sls!&*()_+>time: 0 ns<sls!&*()_+>length: 0<sls!&*()_+>...<sls!&*()_+><sle!&*()_+>
<slp!&*()_+>
(C) 2006-2013 Synopsys, Inc.
<slb!&*()_+>---<sls!&*()_+>loc: -1<sls!&*()_+>src: /home/synopsys/vcs-mx/O-2018.09-1/etc/uvm/base/uvm_root.svh<sls!&*()_+>line: 317<sls!&*()_+>time: 0 ns<sls!&*()_+>length: 0<sls!&*()_+>...<sls!&*()_+><sle!&*()_+>
<slp!&*()_+>
(C) 2011-2013 Cypress Semiconductor Corp.
<slb!&*()_+>---<sls!&*()_+>loc: -1<sls!&*()_+>src: /home/synopsys/vcs-mx/O-2018.09-1/etc/uvm/base/uvm_root.svh<sls!&*()_+>line: 317<sls!&*()_+>time: 0 ns<sls!&*()_+>length: 0<sls!&*()_+>...<sls!&*()_+><sle!&*()_+>
<slp!&*()_+>
----------------------------------------------------------------
<slb!&*()_+>---<sls!&*()_+>loc: -1<sls!&*()_+>src: /home/synopsys/vcs-mx/O-2018.09-1/etc/uvm/base/uvm_root.svh<sls!&*()_+>line: 317<sls!&*()_+>time: 0 ns<sls!&*()_+>length: 0<sls!&*()_+>...<sls!&*()_+><sle!&*()_+>
<slp!&*()_+>
  ***********       IMPORTANT RELEASE NOTES         ************
<slb!&*()_+>---<sls!&*()_+>loc: -1<sls!&*()_+>src: /home/synopsys/vcs-mx/O-2018.09-1/etc/uvm/base/uvm_root.svh<sls!&*()_+>line: 317<sls!&*()_+>time: 0 ns<sls!&*()_+>length: 0<sls!&*()_+>...<sls!&*()_+><sle!&*()_+>
<slp!&*()_+>
  You are using a version of the UVM library that has been compiled
<slb!&*()_+>---<sls!&*()_+>loc: -1<sls!&*()_+>src: /home/synopsys/vcs-mx/O-2018.09-1/etc/uvm/base/uvm_root.svh<sls!&*()_+>line: 317<sls!&*()_+>time: 0 ns<sls!&*()_+>length: 0<sls!&*()_+>...<sls!&*()_+><sle!&*()_+>
<slp!&*()_+>
  with `UVM_NO_DEPRECATED undefined.
<slb!&*()_+>---<sls!&*()_+>loc: -1<sls!&*()_+>src: /home/synopsys/vcs-mx/O-2018.09-1/etc/uvm/base/uvm_root.svh<sls!&*()_+>line: 317<sls!&*()_+>time: 0 ns<sls!&*()_+>length: 0<sls!&*()_+>...<sls!&*()_+><sle!&*()_+>
<slp!&*()_+>
  See http://www.eda.org/svdb/view.php?id=3313 for more details.
<slb!&*()_+>---<sls!&*()_+>loc: -1<sls!&*()_+>src: /home/synopsys/vcs-mx/O-2018.09-1/etc/uvm/base/uvm_root.svh<sls!&*()_+>line: 317<sls!&*()_+>time: 0 ns<sls!&*()_+>length: 0<sls!&*()_+>...<sls!&*()_+><sle!&*()_+>
<slp!&*()_+>
  You are using a version of the UVM library that has been compiled
<slb!&*()_+>---<sls!&*()_+>loc: -1<sls!&*()_+>src: /home/synopsys/vcs-mx/O-2018.09-1/etc/uvm/base/uvm_root.svh<sls!&*()_+>line: 317<sls!&*()_+>time: 0 ns<sls!&*()_+>length: 0<sls!&*()_+>...<sls!&*()_+><sle!&*()_+>
<slp!&*()_+>
  with `UVM_OBJECT_MUST_HAVE_CONSTRUCTOR undefined.
<slb!&*()_+>---<sls!&*()_+>loc: -1<sls!&*()_+>src: /home/synopsys/vcs-mx/O-2018.09-1/etc/uvm/base/uvm_root.svh<sls!&*()_+>line: 317<sls!&*()_+>time: 0 ns<sls!&*()_+>length: 0<sls!&*()_+>...<sls!&*()_+><sle!&*()_+>
<slp!&*()_+>
  See http://www.eda.org/svdb/view.php?id=3770 for more details.
<slb!&*()_+>---<sls!&*()_+>loc: -1<sls!&*()_+>src: /home/synopsys/vcs-mx/O-2018.09-1/etc/uvm/base/uvm_root.svh<sls!&*()_+>line: 317<sls!&*()_+>time: 0 ns<sls!&*()_+>length: 0<sls!&*()_+>...<sls!&*()_+><sle!&*()_+>
<slp!&*()_+>
      (Specify +UVM_NO_RELNOTES to turn off this notice)
<slb!&*()_+>---<sls!&*()_+>loc: -1<sls!&*()_+>src: /home/synopsys/vcs-mx/O-2018.09-1/etc/uvm/base/uvm_root.svh<sls!&*()_+>line: 317<sls!&*()_+>time: 0 ns<sls!&*()_+>length: 0<sls!&*()_+>...<sls!&*()_+><sle!&*()_+>

ucli% synUtils::getArch
linux64
ucli% loaddl -simv /home/synopsys/verdi/Verdi_O-2018.09-SP2/share/PLI/VCS/LINUXAMD64/libnovas.so LoadFSDBDumpCmd;LoadFSDBDumpCmd
LoadFSDBDumpCmd success
ucli% config ckptfsdbcheck off;config endofsim noexit;config onfail {enable all};config followactivescope on;catch {setUcliVerdiConnected};set watch::resultTagsForVerdiBP {<ucli_break_bp_status_begin> <ucli_break_bp_status_end>};cbug::config pretty_print auto;fsdbDumpfile {/home/ICer/Documents/basic_uvm/labs/lab_02/sv/inter.fsdb} ;fsdbDumpflush ; 
*Verdi* Loading libsscore_vcs201809.so
FSDB Dumper for VCS, Release Verdi_O-2018.09-SP2, Linux x86_64/64bit, 02/21/2019
(C) 1996 - 2019 by Synopsys, Inc.
*Verdi* : Create FSDB file '/home/ICer/Documents/basic_uvm/labs/lab_02/sv/inter.fsdb'
*Verdi* : Flush all FSDB Files at 0 ns.

ucli% sps_interactive
*Verdi* : Enable RPC Server(105091)

ucli% ucliCore::getToolPID
105091
ucli% ucliCore::getToolPID
105091
ucli% if {[catch {ucliCore::setFocus tool}]} {}

ucli% puts $ucliCore::nativeUcliMode
0

ucli% ucliCore::getToolTopPID
105091
ucli% pid
105105
ucli% synUtils::sendTool -active {_icl_createSharedMemory /tmp/vcs_dve_general.ICer.105091 }

ucli% if { [info vars watch::vcbp_str_len_limit_of_get_value] != ""} {set watch::vcbp_str_len_limit_of_get_value 1024}
1024
ucli% info command stateVerdiChangeCB

ucli% proc stateVerdiChangeCB args { if {$ucliGUI::state eq "terminated"} {puts "\nVERDI_SIM_Terminated\n";catch {setVerdiSimTerminated}}}

ucli% trace variable ucliGUI::state wu stateVerdiChangeCB

ucli% if {[catch {rename synopsys::restore verdiHack::restore} ]} {puts "0"}

ucli% proc synopsys::restore {args} { verdiHack::restore $args; puts "\nVERDI_SIM_RESTORE\n"}

ucli% if {[catch {rename quit verdiHack::quit} ]} {puts "0"}

ucli% proc quit {args} { if {[string length $args] == 0} { verdiHack::quit; } elseif {([string equal "-h" $args] == 1)||([string equal "-he" $args] == 1)||([string equal "-hel" $args] == 1)||([string equal "-help" $args] == 1)} { puts "\n quit           # Exit the simulation.\n \[-noprompt\]        (Exit the simulation and Verdi.)\n"} elseif {([string equal "-n" $args] == 1)||([string equal "-no" $args] == 1)||([string equal "-nop" $args] == 1)||([string equal "-nopr" $args] == 1)||([string equal "-nopro" $args] == 1)||([string equal "-noprom" $args] == 1)||([string equal "-nopromp" $args] == 1)||([string equal "-noprompt" $args] == 1)} { puts "\nVERDI_EXIT_N\n" } else { verdiHack::quit $args; } }

ucli% if {[catch {rename exit verdiHack::exit} ]} {puts "0"}

ucli% proc exit {args} { if {[string length $args] == 0} { verdiHack::exit; } elseif {([string equal "-h" $args] == 1)||([string equal "-he" $args] == 1)||([string equal "-hel" $args] == 1)||([string equal "-help" $args] == 1)} { puts "\n exit           # Exit the simulation.\n \[-noprompt\]        (Exit the simulation and Verdi.)\n"} elseif {([string equal "-n" $args] == 1)||([string equal "-no" $args] == 1)||([string equal "-nop" $args] == 1)||([string equal "-nopr" $args] == 1)||([string equal "-nopro" $args] == 1)||([string equal "-noprom" $args] == 1)||([string equal "-nopromp" $args] == 1)||([string equal "-noprompt" $args] == 1)} { puts "\nVERDI_EXIT_N\n" } else { verdiHack::exit $args; } }

ucli% proc checkpoint::beforeRecreate {} { sps_interactive }

ucli% if {[catch {ucliCore::setFocus tool}]} {}

ucli% save::getUserdefinedProcs
::stateVerdiChangeCB ::LoadFSDBDumpCmd
ucli% info procs
ipi_get_str fsdbDumpMDAByFile fsdbDumpMDA echo fsdbDumpMemNow fsdbAutoSwitchDumpfile unknown sps_interactive auto_import stat fsdbDumpfile setenv auto_execok pkg_mkIndex stateVerdiChangeCB fsdbDumpSingle proc_body ipi_begin fsdbDumpoff getenv fsdbDumplimit fsdbDumpPattern ipi_handle fsdbDumpvarsByFile fsdbDumpMDAInScope lminus ipi_sim_get interp ls auto_load_index proc_args fsdbAddRuntimeSignal fsdbDumpSC print_message_info ridbDump fsdbDumpSVAoff fsdbSuppress fsdbDumpvars help fsdbDumpMDAOnChange ipi_control auto_qualify fsdbDumpMem tclPkgUnknown printenv ipi_handle_by_name helpdoc fsdbDumpMemInScope fsdbDumpFinish is_true fsdbDumpon sh fsdbQueryInfo puts LoadFSDBDumpCmd fsdbDumpPSL fsdbDumpSVA ipi_end wrapperSpecmanSn fsdbDumpSVAon fsdbDumpClassObjectByFile is_false auto_load fsdbDumpPSLon ipi_get_int64 fsdbSubstituteHier ipi_get_value ipi_iterate exit fsdbDumpMemInFile tclLog fsdbDumpflush get_unix_variable mem_debug ipi_scan fsdbDumpPSLoff fsdbDumpClassObject fsdbDumpvarsToFile set_unix_variable bgerror fsdbDumpStrength clock add_group fsdbSwitchDumpfile source add_wave unsetenv fsdbDumpvarsES readline fsdbDisplay ipi_handle_free set_group ipi_get quit define_proc_attributes tclPkgSetup fsdbDumpMDANow ipi_init_play_tcl fsdbDumpIO
ucli% lappend ucliCore::resultTagsForVerdi <?special_verdi_begin?> <?special_verdi_end?>
<?special_verdi_begin?> <?special_verdi_end?>
ucli% if {[catch {ucliCore::setFocus tool}]} {}

ucli% fsdbDumpflush 
*Verdi* : Flush all FSDB Files at 0 ns.

ucli% senv
activeDomain: Verilog
activeFile: /home/synopsys/vcs-mx/O-2018.09-1/etc/uvm/verdi/uvm_custom_install_verdi_recorder.sv
activeFrame: -1
activeLine: 45
activeScope: uvm_custom_install_verdi_recording
activeThread: 0
endCol: 0
file: /home/synopsys/vcs-mx/O-2018.09-1/etc/uvm/verdi/uvm_custom_install_verdi_recorder.sv
frame: -1
fsdbFilename: 
hasTB: 1
inputFilename: 
keyFilename: ucli.key
line: 45
logFilename: /home/ICer/Documents/basic_uvm/labs/lab_02/sv/verdiLog/sim.log
macroIndex: -1
macroOffset: -1
pid: 105091
scope: uvm_custom_install_verdi_recording
startCol: 0
state: stopped
thread: 0
time: 0
timePrecision: 1 ns
vcdFilename: 
vpdFilename:
ucli% puts $::ucliCore::cbug_active
0

ucli% if {[catch {ucliCore::setFocus tool}]} {}

ucli% checkpoint -list -all
There are no checkpoints present.
ucli% stop
No stop points are set
ucli% if {[catch {ucliCore::setFocus tool}]} {}

ucli% run
<slp!&*()_+>
UVM_INFO /home/synopsys/vcs-mx/O-2018.09-1/etc/uvm/base/uvm_root.svh(379) @ 0: reporter [NO_DPI_TSTNAME] UVM_NO_DPI defined--getting UVM_TESTNAME directly, without DPI
<slb!&*()_+>---<sls!&*()_+>loc: -1<sls!&*()_+>src: /home/synopsys/vcs-mx/O-2018.09-1/etc/uvm/base/uvm_root.svh<sls!&*()_+>line: 280<sls!&*()_+>time: 0 ns<sls!&*()_+>length: 0<sls!&*()_+>...<sls!&*()_+><sle!&*()_+>
<slp!&*()_+>
UVM_INFO @ 0: reporter [RNTST] Running test my_test...
<slb!&*()_+>---<sls!&*()_+>loc: -1<sls!&*()_+>src: /home/synopsys/vcs-mx/O-2018.09-1/etc/uvm/base/uvm_root.svh<sls!&*()_+>line: 280<sls!&*()_+>time: 0 ns<sls!&*()_+>length: 0<sls!&*()_+>...<sls!&*()_+><sle!&*()_+>
<slp!&*()_+>
UVM_INFO @ 0: reporter [UVMTOP] UVM testbench topology:
<slb!&*()_+>---<sls!&*()_+>loc: -1<sls!&*()_+>src: /home/synopsys/vcs-mx/O-2018.09-1/etc/uvm/base/uvm_root.svh<sls!&*()_+>line: 280<sls!&*()_+>time: 0 ns<sls!&*()_+>length: 0<sls!&*()_+>...<sls!&*()_+><sle!&*()_+>
<slp!&*()_+>
uvm_test_top: (my_test@455) {
  m_env: (my_env@463) {
    m_agent: (master_agent@479) {
      m_driv: (my_driver@614) {
        rsp_port: (uvm_analysis_port@631) @631 
        seq_item_port: (uvm_seq_item_pull_port@622) @622 
      }
      m_moni: (my_monitor@640) @640 
      m_seqr: (uvm_sequencer@491) {
        rsp_export: (uvm_analysis_export@499) @499 
        seq_item_export: (uvm_seq_item_pull_imp@605) @605 
        arbitration_queue: - 
        lock_queue: - 
        num_last_reqs: 'd1 
        num_last_rsps: 'd1 
      }
    }
  }
}

<slb!&*()_+>---<sls!&*()_+>loc: -1<sls!&*()_+>src: /home/synopsys/vcs-mx/O-2018.09-1/etc/uvm/base/uvm_root.svh<sls!&*()_+>line: 503<sls!&*()_+>time: 0 ns<sls!&*()_+>length: 0<sls!&*()_+>...<sls!&*()_+><sle!&*()_+>
<slp!&*()_+>
UVM_INFO my_transaction.sv(143) @ 0: uvm_test_top.m_env.m_agent.m_moni [MON_RUN_PHASE] Monitor run!
<slb!&*()_+>---<sls!&*()_+>loc: -1<sls!&*()_+>src: my_transaction.sv<sls!&*()_+>line: 143<sls!&*()_+>time: 0 ns<sls!&*()_+>length: 0<sls!&*()_+>...<sls!&*()_+><sle!&*()_+>
<slp!&*()_+>
UVM_INFO my_transaction.sv(143) @ 100: uvm_test_top.m_env.m_agent.m_moni [MON_RUN_PHASE] Monitor run!
<slb!&*()_+>---<sls!&*()_+>loc: -1<sls!&*()_+>src: my_transaction.sv<sls!&*()_+>line: 143<sls!&*()_+>time: 100 ns<sls!&*()_+>length: 0<sls!&*()_+>...<sls!&*()_+><sle!&*()_+>
<slp!&*()_+>
UVM_INFO my_transaction.sv(98) @ 100: uvm_test_top.m_env.m_agent.m_driv [DRV_RESET_PHASE] Now driver reset the DUT...
<slb!&*()_+>---<sls!&*()_+>loc: -1<sls!&*()_+>src: my_transaction.sv<sls!&*()_+>line: 98<sls!&*()_+>time: 100 ns<sls!&*()_+>length: 0<sls!&*()_+>...<sls!&*()_+><sle!&*()_+>
<slp!&*()_+>
UVM_INFO my_transaction.sv(143) @ 200: uvm_test_top.m_env.m_agent.m_moni [MON_RUN_PHASE] Monitor run!
<slb!&*()_+>---<sls!&*()_+>loc: -1<sls!&*()_+>src: my_transaction.sv<sls!&*()_+>line: 143<sls!&*()_+>time: 200 ns<sls!&*()_+>length: 0<sls!&*()_+>...<sls!&*()_+><sle!&*()_+>
<slp!&*()_+>
UVM_INFO my_transaction.sv(105) @ 200: uvm_test_top.m_env.m_agent.m_driv [DRV_CONFIGURE_PHASE] Now driver config the DUT...
<slb!&*()_+>---<sls!&*()_+>loc: -1<sls!&*()_+>src: my_transaction.sv<sls!&*()_+>line: 105<sls!&*()_+>time: 200 ns<sls!&*()_+>length: 0<sls!&*()_+>...<sls!&*()_+><sle!&*()_+>
<slp!&*()_+>
UVM_INFO my_transaction.sv(143) @ 300: uvm_test_top.m_env.m_agent.m_moni [MON_RUN_PHASE] Monitor run!
<slb!&*()_+>---<sls!&*()_+>loc: -1<sls!&*()_+>src: my_transaction.sv<sls!&*()_+>line: 143<sls!&*()_+>time: 300 ns<sls!&*()_+>length: 0<sls!&*()_+>...<sls!&*()_+><sle!&*()_+>
<slp!&*()_+>
UVM_INFO my_transaction.sv(143) @ 400: uvm_test_top.m_env.m_agent.m_moni [MON_RUN_PHASE] Monitor run!
<slb!&*()_+>---<sls!&*()_+>loc: -1<sls!&*()_+>src: my_transaction.sv<sls!&*()_+>line: 143<sls!&*()_+>time: 400 ns<sls!&*()_+>length: 0<sls!&*()_+>...<sls!&*()_+><sle!&*()_+>
<slp!&*()_+>
UVM_INFO my_transaction.sv(143) @ 500: uvm_test_top.m_env.m_agent.m_moni [MON_RUN_PHASE] Monitor run!
<slb!&*()_+>---<sls!&*()_+>loc: -1<sls!&*()_+>src: my_transaction.sv<sls!&*()_+>line: 143<sls!&*()_+>time: 500 ns<sls!&*()_+>length: 0<sls!&*()_+>...<sls!&*()_+><sle!&*()_+>
<slp!&*()_+>
UVM_INFO my_transaction.sv(143) @ 600: uvm_test_top.m_env.m_agent.m_moni [MON_RUN_PHASE] Monitor run!
<slb!&*()_+>---<sls!&*()_+>loc: -1<sls!&*()_+>src: my_transaction.sv<sls!&*()_+>line: 143<sls!&*()_+>time: 600 ns<sls!&*()_+>length: 0<sls!&*()_+>...<sls!&*()_+><sle!&*()_+>
<slp!&*()_+>
UVM_INFO my_transaction.sv(143) @ 700: uvm_test_top.m_env.m_agent.m_moni [MON_RUN_PHASE] Monitor run!
<slb!&*()_+>---<sls!&*()_+>loc: -1<sls!&*()_+>src: my_transaction.sv<sls!&*()_+>line: 143<sls!&*()_+>time: 700 ns<sls!&*()_+>length: 0<sls!&*()_+>...<sls!&*()_+><sle!&*()_+>
<slp!&*()_+>
UVM_INFO my_transaction.sv(143) @ 800: uvm_test_top.m_env.m_agent.m_moni [MON_RUN_PHASE] Monitor run!
<slb!&*()_+>---<sls!&*()_+>loc: -1<sls!&*()_+>src: my_transaction.sv<sls!&*()_+>line: 143<sls!&*()_+>time: 800 ns<sls!&*()_+>length: 0<sls!&*()_+>...<sls!&*()_+><sle!&*()_+>
<slp!&*()_+>
UVM_INFO my_transaction.sv(143) @ 900: uvm_test_top.m_env.m_agent.m_moni [MON_RUN_PHASE] Monitor run!
<slb!&*()_+>---<sls!&*()_+>loc: -1<sls!&*()_+>src: my_transaction.sv<sls!&*()_+>line: 143<sls!&*()_+>time: 900 ns<sls!&*()_+>length: 0<sls!&*()_+>...<sls!&*()_+><sle!&*()_+>
<slp!&*()_+>
UVM_INFO my_transaction.sv(143) @ 1000: uvm_test_top.m_env.m_agent.m_moni [MON_RUN_PHASE] Monitor run!
<slb!&*()_+>---<sls!&*()_+>loc: -1<sls!&*()_+>src: my_transaction.sv<sls!&*()_+>line: 143<sls!&*()_+>time: 1000 ns<sls!&*()_+>length: 0<sls!&*()_+>...<sls!&*()_+><sle!&*()_+>
<slp!&*()_+>
UVM_INFO my_transaction.sv(143) @ 1100: uvm_test_top.m_env.m_agent.m_moni [MON_RUN_PHASE] Monitor run!
<slb!&*()_+>---<sls!&*()_+>loc: -1<sls!&*()_+>src: my_transaction.sv<sls!&*()_+>line: 143<sls!&*()_+>time: 1100 ns<sls!&*()_+>length: 0<sls!&*()_+>...<sls!&*()_+><sle!&*()_+>
<slp!&*()_+>
UVM_INFO my_transaction.sv(143) @ 1200: uvm_test_top.m_env.m_agent.m_moni [MON_RUN_PHASE] Monitor run!
<slb!&*()_+>---<sls!&*()_+>loc: -1<sls!&*()_+>src: my_transaction.sv<sls!&*()_+>line: 143<sls!&*()_+>time: 1200 ns<sls!&*()_+>length: 0<sls!&*()_+>...<sls!&*()_+><sle!&*()_+>
<slp!&*()_+>
UVM_INFO my_transaction.sv(143) @ 1300: uvm_test_top.m_env.m_agent.m_moni [MON_RUN_PHASE] Monitor run!
<slb!&*()_+>---<sls!&*()_+>loc: -1<sls!&*()_+>src: my_transaction.sv<sls!&*()_+>line: 143<sls!&*()_+>time: 1300 ns<sls!&*()_+>length: 0<sls!&*()_+>...<sls!&*()_+><sle!&*()_+>
<slp!&*()_+>
UVM_INFO my_transaction.sv(143) @ 1400: uvm_test_top.m_env.m_agent.m_moni [MON_RUN_PHASE] Monitor run!
<slb!&*()_+>---<sls!&*()_+>loc: -1<sls!&*()_+>src: my_transaction.sv<sls!&*()_+>line: 143<sls!&*()_+>time: 1400 ns<sls!&*()_+>length: 0<sls!&*()_+>...<sls!&*()_+><sle!&*()_+>
<slp!&*()_+>
UVM_INFO my_transaction.sv(143) @ 1500: uvm_test_top.m_env.m_agent.m_moni [MON_RUN_PHASE] Monitor run!
<slb!&*()_+>---<sls!&*()_+>loc: -1<sls!&*()_+>src: my_transaction.sv<sls!&*()_+>line: 143<sls!&*()_+>time: 1500 ns<sls!&*()_+>length: 0<sls!&*()_+>...<sls!&*()_+><sle!&*()_+>
<slp!&*()_+>
UVM_INFO my_transaction.sv(143) @ 1600: uvm_test_top.m_env.m_agent.m_moni [MON_RUN_PHASE] Monitor run!
<slb!&*()_+>---<sls!&*()_+>loc: -1<sls!&*()_+>src: my_transaction.sv<sls!&*()_+>line: 143<sls!&*()_+>time: 1600 ns<sls!&*()_+>length: 0<sls!&*()_+>...<sls!&*()_+><sle!&*()_+>
<slp!&*()_+>
UVM_INFO my_transaction.sv(143) @ 1700: uvm_test_top.m_env.m_agent.m_moni [MON_RUN_PHASE] Monitor run!
<slb!&*()_+>---<sls!&*()_+>loc: -1<sls!&*()_+>src: my_transaction.sv<sls!&*()_+>line: 143<sls!&*()_+>time: 1700 ns<sls!&*()_+>length: 0<sls!&*()_+>...<sls!&*()_+><sle!&*()_+>
<slp!&*()_+>
UVM_INFO my_transaction.sv(143) @ 1800: uvm_test_top.m_env.m_agent.m_moni [MON_RUN_PHASE] Monitor run!
<slb!&*()_+>---<sls!&*()_+>loc: -1<sls!&*()_+>src: my_transaction.sv<sls!&*()_+>line: 143<sls!&*()_+>time: 1800 ns<sls!&*()_+>length: 0<sls!&*()_+>...<sls!&*()_+><sle!&*()_+>
<slp!&*()_+>
UVM_INFO my_transaction.sv(143) @ 1900: uvm_test_top.m_env.m_agent.m_moni [MON_RUN_PHASE] Monitor run!
<slb!&*()_+>---<sls!&*()_+>loc: -1<sls!&*()_+>src: my_transaction.sv<sls!&*()_+>line: 143<sls!&*()_+>time: 1900 ns<sls!&*()_+>length: 0<sls!&*()_+>...<sls!&*()_+><sle!&*()_+>
<slp!&*()_+>
UVM_INFO my_transaction.sv(143) @ 2000: uvm_test_top.m_env.m_agent.m_moni [MON_RUN_PHASE] Monitor run!
<slb!&*()_+>---<sls!&*()_+>loc: -1<sls!&*()_+>src: my_transaction.sv<sls!&*()_+>line: 143<sls!&*()_+>time: 2000 ns<sls!&*()_+>length: 0<sls!&*()_+>...<sls!&*()_+><sle!&*()_+>
<slp!&*()_+>
UVM_INFO my_transaction.sv(143) @ 2100: uvm_test_top.m_env.m_agent.m_moni [MON_RUN_PHASE] Monitor run!
<slb!&*()_+>---<sls!&*()_+>loc: -1<sls!&*()_+>src: my_transaction.sv<sls!&*()_+>line: 143<sls!&*()_+>time: 2100 ns<sls!&*()_+>length: 0<sls!&*()_+>...<sls!&*()_+><sle!&*()_+>
<slp!&*()_+>
UVM_INFO my_transaction.sv(143) @ 2200: uvm_test_top.m_env.m_agent.m_moni [MON_RUN_PHASE] Monitor run!
<slb!&*()_+>---<sls!&*()_+>loc: -1<sls!&*()_+>src: my_transaction.sv<sls!&*()_+>line: 143<sls!&*()_+>time: 2200 ns<sls!&*()_+>length: 0<sls!&*()_+>...<sls!&*()_+><sle!&*()_+>
<slp!&*()_+>
UVM_INFO my_transaction.sv(143) @ 2300: uvm_test_top.m_env.m_agent.m_moni [MON_RUN_PHASE] Monitor run!
<slb!&*()_+>---<sls!&*()_+>loc: -1<sls!&*()_+>src: my_transaction.sv<sls!&*()_+>line: 143<sls!&*()_+>time: 2300 ns<sls!&*()_+>length: 0<sls!&*()_+>...<sls!&*()_+><sle!&*()_+>
<slp!&*()_+>
UVM_INFO my_transaction.sv(143) @ 2400: uvm_test_top.m_env.m_agent.m_moni [MON_RUN_PHASE] Monitor run!
<slb!&*()_+>---<sls!&*()_+>loc: -1<sls!&*()_+>src: my_transaction.sv<sls!&*()_+>line: 143<sls!&*()_+>time: 2400 ns<sls!&*()_+>length: 0<sls!&*()_+>...<sls!&*()_+><sle!&*()_+>
<slp!&*()_+>
UVM_INFO my_transaction.sv(143) @ 2500: uvm_test_top.m_env.m_agent.m_moni [MON_RUN_PHASE] Monitor run!
<slb!&*()_+>---<sls!&*()_+>loc: -1<sls!&*()_+>src: my_transaction.sv<sls!&*()_+>line: 143<sls!&*()_+>time: 2500 ns<sls!&*()_+>length: 0<sls!&*()_+>...<sls!&*()_+><sle!&*()_+>
<slp!&*()_+>
UVM_INFO my_transaction.sv(143) @ 2600: uvm_test_top.m_env.m_agent.m_moni [MON_RUN_PHASE] Monitor run!
<slb!&*()_+>---<sls!&*()_+>loc: -1<sls!&*()_+>src: my_transaction.sv<sls!&*()_+>line: 143<sls!&*()_+>time: 2600 ns<sls!&*()_+>length: 0<sls!&*()_+>...<sls!&*()_+><sle!&*()_+>
<slp!&*()_+>
UVM_INFO my_transaction.sv(143) @ 2700: uvm_test_top.m_env.m_agent.m_moni [MON_RUN_PHASE] Monitor run!
<slb!&*()_+>---<sls!&*()_+>loc: -1<sls!&*()_+>src: my_transaction.sv<sls!&*()_+>line: 143<sls!&*()_+>time: 2700 ns<sls!&*()_+>length: 0<sls!&*()_+>...<sls!&*()_+><sle!&*()_+>
<slp!&*()_+>
UVM_INFO my_transaction.sv(143) @ 2800: uvm_test_top.m_env.m_agent.m_moni [MON_RUN_PHASE] Monitor run!
<slb!&*()_+>---<sls!&*()_+>loc: -1<sls!&*()_+>src: my_transaction.sv<sls!&*()_+>line: 143<sls!&*()_+>time: 2800 ns<sls!&*()_+>length: 0<sls!&*()_+>...<sls!&*()_+><sle!&*()_+>
<slp!&*()_+>
UVM_INFO my_transaction.sv(143) @ 2900: uvm_test_top.m_env.m_agent.m_moni [MON_RUN_PHASE] Monitor run!
<slb!&*()_+>---<sls!&*()_+>loc: -1<sls!&*()_+>src: my_transaction.sv<sls!&*()_+>line: 143<sls!&*()_+>time: 2900 ns<sls!&*()_+>length: 0<sls!&*()_+>...<sls!&*()_+><sle!&*()_+>
<slp!&*()_+>
UVM_INFO my_transaction.sv(143) @ 3000: uvm_test_top.m_env.m_agent.m_moni [MON_RUN_PHASE] Monitor run!
<slb!&*()_+>---<sls!&*()_+>loc: -1<sls!&*()_+>src: my_transaction.sv<sls!&*()_+>line: 143<sls!&*()_+>time: 3000 ns<sls!&*()_+>length: 0<sls!&*()_+>...<sls!&*()_+><sle!&*()_+>
<slp!&*()_+>
UVM_INFO my_transaction.sv(114) @ 3000: uvm_test_top.m_env.m_agent.m_driv [DRV_RUN_PHASE] --------------------------------------------------------------------------------------------------
Name                           Type            Size  Value                                        
--------------------------------------------------------------------------------------------------
req                            my_transaction  -     @661                                         
  sa                           integral        4     'he                                          
  da                           integral        4     'h8                                          
  payload                      da(integral)    3     -                                            
    [0]                        integral        8     'h6d                                         
    [1]                        integral        8     'h79                                         
    [2]                        integral        8     'h57                                         
  begin_time                   time            64    3000                                         
  depth                        int             32    'd2                                          
  parent sequence (name)       string          11    my_sequence                                  
  parent sequence (full name)  string          45    uvm_test_top.m_env.m_agent.m_seqr.my_sequence
  sequencer                    string          33    uvm_test_top.m_env.m_agent.m_seqr            
--------------------------------------------------------------------------------------------------

<slb!&*()_+>---<sls!&*()_+>loc: -1<sls!&*()_+>src: my_transaction.sv<sls!&*()_+>line: 114<sls!&*()_+>time: 3000 ns<sls!&*()_+>length: 0<sls!&*()_+>...<sls!&*()_+><sle!&*()_+>
<slp!&*()_+>
UVM_INFO my_transaction.sv(143) @ 3100: uvm_test_top.m_env.m_agent.m_moni [MON_RUN_PHASE] Monitor run!
<slb!&*()_+>---<sls!&*()_+>loc: -1<sls!&*()_+>src: my_transaction.sv<sls!&*()_+>line: 143<sls!&*()_+>time: 3100 ns<sls!&*()_+>length: 0<sls!&*()_+>...<sls!&*()_+><sle!&*()_+>
<slp!&*()_+>
UVM_INFO my_transaction.sv(114) @ 3100: uvm_test_top.m_env.m_agent.m_driv [DRV_RUN_PHASE] --------------------------------------------------------------------------------------------------
Name                           Type            Size  Value                                        
--------------------------------------------------------------------------------------------------
req                            my_transaction  -     @690                                         
  sa                           integral        4     'hc                                          
  da                           integral        4     'h5                                          
  payload                      da(integral)    2     -                                            
    [0]                        integral        8     'h70                                         
    [1]                        integral        8     'h76                                         
  begin_time                   time            64    3100                                         
  depth                        int             32    'd2                                          
  parent sequence (name)       string          11    my_sequence                                  
